{
  "count": 12,
  "page": 1,
  "total_pages": 2,
  "items_per_page": 10,
  "items": [
    {
      "id": 0,
      "name": "Fillable Form COVID-19 Elderly"
    },
    {
      "id": 1,
      "name": "Fillable Form COVID-19 General"
    },
    {
      "id": 2,
      "name": "Fillable Form COVID-19 Men"
    },
    {
      "id": 3,
      "name": "Fillable Form COVID-19 Kids"
    },
    {
      "id": 4,
      "name": "Fillable Form COVID-19 Family"
    },
    {
      "id": 5,
      "name": "COVID-19"
    },
    {
      "id": 6,
      "name": "Family"
    },
    {
      "id": 7,
      "name": "Kids"
    },
    {
      "id": 8,
      "name": "Boys"
    },
    {
      "id": 9,
      "name": "Girls"
    },
    {
      "id": 10,
      "name": "Testing"
    },
    {
      "id": 11,
      "name": "Another String"
    },
    {
      "id": 12,
      "name": "Peaceee and stay home"
    },
  ]
}
